\relax 
\catcode `"\active 
\catcode `<\active 
\catcode `>\active 
\@nameuse{es@quoting}
\select@language{spanish}
\@writefile{toc}{\select@language{spanish}}
\@writefile{lof}{\select@language{spanish}}
\@writefile{lot}{\select@language{spanish}}
\@writefile{toc}{\contentsline {section}{\numberline {1}Descripci\'on breve.}{1}}
\@writefile{toc}{\contentsline {section}{\numberline {2}Lista de descriptores.}{1}}
\@writefile{toc}{\contentsline {section}{\numberline {3}Requisitos espec\IeC {\'\i }ficos que ha de cumplir el desarrollo.}{1}}
\@writefile{toc}{\contentsline {section}{\numberline {4}Din\'amica del juego.}{1}}
\@writefile{toc}{\contentsline {section}{\numberline {5}Recursos art\IeC {\'\i }sticos.}{2}}
